<svg xmlns="http://www.w3.org/2000/svg" width="15.004" height="17.505" viewBox="0 0 15.004 17.505">
  <path id="Icon_metro-file-pdf" data-name="Icon metro-file-pdf" d="M16.911,5.915a2.273,2.273,0,0,1,.469.742,2.254,2.254,0,0,1,.2.86V18.771a.934.934,0,0,1-.938.938H3.508a.934.934,0,0,1-.938-.938V3.141A.934.934,0,0,1,3.508,2.2h8.752a2.255,2.255,0,0,1,.86.2,2.273,2.273,0,0,1,.742.469ZM12.574,3.532V7.2h3.673a1.067,1.067,0,0,0-.215-.4L12.974,3.747a1.067,1.067,0,0,0-.4-.215Zm3.751,14.926v-10H12.261a.934.934,0,0,1-.938-.938V3.454h-7.5v15h12.5ZM11.3,12.665a7.433,7.433,0,0,0,.821.547,9.693,9.693,0,0,1,1.143-.068q1.436,0,1.729.479a.472.472,0,0,1,.02.508.028.028,0,0,1-.01.02l-.02.02v.01q-.059.371-.694.371a4.03,4.03,0,0,1-1.123-.2,7.123,7.123,0,0,1-1.27-.518,17.589,17.589,0,0,0-3.829.811q-1.495,2.559-2.364,2.559a.568.568,0,0,1-.274-.068L5.2,17.022q-.01-.01-.059-.049a.4.4,0,0,1-.059-.352,2.121,2.121,0,0,1,.547-.894,4.721,4.721,0,0,1,1.289-.943.143.143,0,0,1,.225.059.056.056,0,0,1,.02.039q.508-.83,1.045-1.924A14.909,14.909,0,0,0,9.223,10.4a7.9,7.9,0,0,1-.3-1.558A3.8,3.8,0,0,1,8.989,7.6Q9.1,7.2,9.4,7.2h.215a.412.412,0,0,1,.342.147.78.78,0,0,1,.088.664A.212.212,0,0,1,10,8.094a.254.254,0,0,1,.01.078v.293a12.791,12.791,0,0,1-.137,1.876A4.942,4.942,0,0,0,11.3,12.665ZM5.677,16.68a4.313,4.313,0,0,0,1.338-1.543,5.569,5.569,0,0,0-.855.821A3.247,3.247,0,0,0,5.677,16.68ZM9.565,7.693a2.9,2.9,0,0,0-.02,1.289q.01-.068.068-.43,0-.029.068-.42a.22.22,0,0,1,.039-.078.028.028,0,0,1-.01-.02.02.02,0,0,0,0-.015.02.02,0,0,1,0-.015.562.562,0,0,0-.127-.352.028.028,0,0,1-.01.02v.02ZM8.354,14.15a14.328,14.328,0,0,1,2.774-.791A1.474,1.474,0,0,1,11,13.266a1.749,1.749,0,0,1-.156-.132A5.174,5.174,0,0,1,9.6,11.415a13.054,13.054,0,0,1-.811,1.924q-.293.547-.44.811Zm6.31-.156a2.338,2.338,0,0,0-1.368-.234,3.7,3.7,0,0,0,1.211.274.948.948,0,0,0,.176-.01q0-.01-.02-.029Z" transform="translate(-2.571 -2.203)" fill="#8d8d8d"/>
</svg>
