<svg xmlns="http://www.w3.org/2000/svg" width="14.657" height="11.611" viewBox="0 0 14.657 11.611">
  <g id="Icon_feather-mail" data-name="Icon feather-mail" transform="translate(0.696 0.5)">
    <path id="Path_249" data-name="Path 249" d="M4.326,6H14.938a1.33,1.33,0,0,1,1.326,1.326v7.959a1.33,1.33,0,0,1-1.326,1.326H4.326A1.33,1.33,0,0,1,3,15.285V7.326A1.33,1.33,0,0,1,4.326,6Z" transform="translate(-3 -6)" fill="none" stroke="#fff" stroke-linecap="round" stroke-linejoin="round" stroke-width="1"/>
    <path id="Path_250" data-name="Path 250" d="M16.265,9,9.632,13.643,3,9" transform="translate(-3 -7.674)" fill="none" stroke="#fff" stroke-linecap="round" stroke-linejoin="round" stroke-width="1"/>
  </g>
</svg>
