<svg xmlns="http://www.w3.org/2000/svg" width="8.043" height="11.618" viewBox="0 0 8.043 11.618">
  <path id="Icon_ionic-ios-pin" data-name="Icon ionic-ios-pin" d="M11.9,3.375A3.887,3.887,0,0,0,7.875,7.109c0,2.9,4.021,7.884,4.021,7.884s4.021-4.979,4.021-7.884A3.887,3.887,0,0,0,11.9,3.375Zm0,5.331a1.31,1.31,0,1,1,1.31-1.31A1.31,1.31,0,0,1,11.9,8.706Z" transform="translate(-7.875 -3.375)" fill="#3999d2"/>
</svg>
